{
  "__type__": "cc.AnimationClip",
  "_name": "SmallMario_run",
  "_objFlags": 0,
  "_native": "",
  "_duration": 0.3333333333333333,
  "sample": 15,
  "speed": 1,
  "wrapMode": 2,
  "curveData": {
    "comps": {
      "cc.Sprite": {
        "spriteFrame": [
          {
            "frame": 0,
            "value": {
              "__uuid__": "c30ce476-d1a9-49df-b796-9cff2749e72d"
            }
          },
          {
            "frame": 0.06666666666666667,
            "value": {
              "__uuid__": "6d3fd61e-4e47-4dc7-9181-e10b37256745"
            }
          },
          {
            "frame": 0.13333333333333333,
            "value": {
              "__uuid__": "08ef5322-79a4-492d-a75e-276d2d656ce4"
            }
          },
          {
            "frame": 0.2,
            "value": {
              "__uuid__": "033a9ce3-1c7d-4981-b378-616fe0fad4fb"
            }
          },
          {
            "frame": 0.26666666666666666,
            "value": {
              "__uuid__": "7761e8bb-d672-4478-8d83-819a9b4af6de"
            }
          }
        ]
      }
    }
  },
  "events": []
}